smp	nr_intervals	total_length
1	318	44025
2	353	40759
3	90	12513
4	379	49722
5	431	48891
6	94	12496
7	280	31376
8	166	20364
9	487	64261
10	494	57700
11	415	46876
12	344	40185
13	178	22470
14	236	30233
15	492	52970
16	434	54859
17	403	58718
18	114	13790
19	143	22290
20	168	27570
21	211	31939
22	509	61770
23	494	67473
24	216	27864
25	307	31614
26	245	30891
27	329	35725
28	157	17395
29	524	63255
30	103	13956
31	114	11776
32	466	62070
33	527	68391
34	383	44968
35	313	36976
36	348	41317
37	267	38984
38	192	23014
39	341	40715
40	85	12433
41	389	44727
42	217	24189
43	271	35826
44	293	41224
45	147	14184
46	174	19794
47	95	12868
48	320	39627
49	547	68132
50	173	17645
51	188	19576
52	193	21158
53	103	12921
54	538	60465
55	196	22132
56	421	54827
57	345	38370
58	277	39562
59	422	43611
60	211	24717
61	316	38715
62	367	46534
63	524	58491
64	344	44501
65	247	28996
66	311	41274
67	172	19763
68	482	55324
69	101	15242
70	420	54607
71	306	45346
72	230	26455
73	363	45046
74	385	44568
75	423	72929
76	88	10389
77	80	10346
78	92	9733
79	494	56746
80	481	62078
81	492	58848
82	525	62718
83	327	48602
84	542	69655
85	280	33569
86	542	64289
87	340	43964
88	414	44320
89	287	30839
90	167	22257
91	185	24773
92	283	33261
93	350	48175
94	485	56106
95	406	50040
96	349	37075
97	307	38244
98	155	14193
99	443	55037
100	466	52252
101	539	65291
102	270	32636
103	411	53906
104	447	51692
105	153	18934
106	295	45927
107	230	29682
108	511	69268
109	427	54727
110	331	41127
111	313	35592
112	262	36648
113	74	9286
114	125	21507
115	487	64380
116	394	51479
117	152	20638
118	82	12836
119	538	61537
120	483	61736
121	112	10489
122	396	50480
123	253	29551
124	231	24486
125	246	35823
126	194	27968
127	486	49649
128	501	65723
129	532	60515
130	510	59225
131	299	40412
132	102	11694
133	492	56153
134	232	31070
135	119	12586
136	262	30865
137	456	59132
138	512	52784
139	193	24010
140	449	58448
141	523	74652
142	413	55590
143	416	49546
144	109	15461
145	286	35556
146	213	20501
147	321	33351
148	336	43068
149	424	47175
150	268	30229
151	452	62393
152	452	51954
153	308	38028
154	445	52765
155	444	60220
156	149	24031
157	503	65554
158	443	58854
159	77	9407
160	358	44295
161	334	41688
162	269	31318
163	511	62021
164	397	50489
165	487	62881
166	269	31123
167	528	66486
168	531	62742
169	454	59909
170	245	32215
171	321	35720
172	424	55703
173	247	27070
174	123	11060
175	195	23839
176	474	57501
177	539	66379
178	162	20672
179	251	23323
180	416	54743
181	294	34100
182	293	35202
183	347	39767
184	300	34598
185	111	14337
186	114	18213
187	385	50338
188	367	38672
189	480	61833
190	312	33830
191	328	38618
192	515	52806
193	397	46253
194	196	26241
195	283	40736
196	332	41326
197	258	24739
198	483	54010
199	387	35788
200	468	64169
201	207	26558
202	190	25023
203	117	13356
204	457	55392
205	79	9376
206	278	35294
207	312	37252
208	443	54235
209	445	58346
210	198	20993
211	466	64087
212	301	43562
213	148	17995
214	91	11108
215	80	10493
216	112	14127
217	192	26482
218	190	31018
219	435	54957
220	267	29236
221	90	11577
222	278	27716
223	189	25731
224	518	64297
225	271	37939
226	289	41900
227	102	15369
228	152	20081
229	99	10099
230	494	63141
231	447	52104
232	245	35094
233	448	61300
234	319	35002
235	535	65805
236	162	13655
237	478	68345
238	165	23245
239	318	37537
240	383	57417
241	455	51438
242	161	19190
243	345	42627
244	96	14314
245	87	10053
246	463	47275
247	161	22009
248	284	29517
249	506	57411
250	109	16172
251	73	10209
252	428	53134
253	260	35508
254	102	9358
255	547	64526
256	488	53778
257	328	44356
258	364	46017
259	178	21047
260	287	37932
261	337	46776
262	226	34088
263	532	63299
264	492	53650
265	341	35363
266	316	45618
267	182	18356
268	540	65066
269	227	30854
270	304	52891
271	385	45834
272	257	30018
273	387	41689
274	137	16228
275	345	40910
276	266	36138
277	282	41097
278	160	17594
279	148	19617
280	535	73525
281	316	31785
282	428	47698
283	486	66309
284	273	46430
285	246	27931
286	350	45374
287	430	50143
288	312	37282
289	106	11648
290	120	12369
291	182	25831
292	539	63969
293	348	40196
294	94	12742
295	358	47314
296	79	12499
297	512	62870
298	249	27589
299	338	43407
300	199	19983
301	383	44267
302	224	21303
303	326	45967
304	440	56310
305	271	38658
306	80	13322
307	162	21887
308	235	31565
309	174	21401
310	350	33422
311	500	60321
312	208	23016
313	543	64157
314	452	57635
315	285	29695
316	270	33378
317	409	54065
318	152	16874
319	169	24980
320	285	39555
321	525	74117
322	305	40079
323	534	57131
